\relax 
\providecommand\hyper@newdestlabel[2]{}
\providecommand\BKM@entry[2]{}
\providecommand*{\memsetcounter}[2]{}
\providecommand\HyperFirstAtBeginDocument{\AtBeginDocument}
\HyperFirstAtBeginDocument{\ifx\hyper@anchor\@undefined
\global\let\oldcontentsline\contentsline
\gdef\contentsline#1#2#3#4{\oldcontentsline{#1}{#2}{#3}}
\global\let\oldnewlabel\newlabel
\gdef\newlabel#1#2{\newlabelxx{#1}#2}
\gdef\newlabelxx#1#2#3#4#5#6{\oldnewlabel{#1}{{#2}{#3}}}
\AtEndDocument{\ifx\hyper@anchor\@undefined
\let\contentsline\oldcontentsline
\let\newlabel\oldnewlabel
\fi}
\fi}
\global\let\hyper@last\relax 
\gdef\HyperFirstAtBeginDocument#1{#1}
\providecommand\HyField@AuxAddToFields[1]{}
\providecommand\HyField@AuxAddToCoFields[2]{}
\catcode `:\active 
\catcode `;\active 
\catcode `!\active 
\catcode `?\active 
\catcode `"\active 
\catcode `<\active 
\catcode `>\active 
\@nameuse{es@quoting}
\citation{abnt-url-package=url}
\@writefile{toc}{\changetocdepth  {4}}
\select@language{brazil}
\@writefile{toc}{\select@language{brazil}}
\@writefile{lof}{\select@language{brazil}}
\@writefile{lot}{\select@language{brazil}}
\BKM@entry{id=1,dest={6368617074657262312E30},srcline={191}}{466F6C686120646520726F73746F}
\BKM@entry{id=2,dest={6368617074657262332E30},srcline={238}}{41677261646563696D656E746F73}
\@writefile{toc}{\setlength  {\cftchapterindent }{\cftlastnumwidth } \setlength  {\cftchapternumwidth }{2em}}
\BKM@entry{id=3,dest={6368617074657262342E30},srcline={260}}{526573756D6F}
\citation{NBR6028:2003}
\@writefile{brf}{\backcite{NBR6028:2003}{{5}{(document)}{Doc-Start}}}
\BKM@entry{id=4,dest={6C6F662E30},srcline={277}}{4C6973746120646520696C75737472615C3334375C3336356573}
\@writefile{toc}{\setlength  {\cftchapterindent }{\cftlastnumwidth } \setlength  {\cftchapternumwidth }{2em}}
\BKM@entry{id=5,dest={6C6F742E30},srcline={285}}{4C6973746120646520746162656C6173}
\@writefile{toc}{\setlength  {\cftchapterindent }{\cftlastnumwidth } \setlength  {\cftchapternumwidth }{2em}}
\BKM@entry{id=6,dest={6368617074657262362E30},srcline={293}}{4C69737461206465206162726576696174757261732065207369676C6173}
\@writefile{toc}{\setlength  {\cftchapterindent }{\cftlastnumwidth } \setlength  {\cftchapternumwidth }{2em}}
\BKM@entry{id=7,dest={6368617074657262382E30},srcline={302}}{4C6973746120646520735C3335356D626F6C6F73}
\@writefile{toc}{\setlength  {\cftchapterindent }{\cftlastnumwidth } \setlength  {\cftchapternumwidth }{2em}}
\BKM@entry{id=8,dest={746F632E30},srcline={313}}{53756D5C33343172696F}
\@writefile{toc}{\setlength  {\cftchapterindent }{\cftlastnumwidth } \setlength  {\cftchapternumwidth }{2em}}
\BKM@entry{id=9,dest={636861707465722A2E39},srcline={328}}{496E74726F64755C3334375C3334336F}
\citation{abntex2classe}
\citation{abntex2-wiki-como-customizar}
\citation{abntex2classe}
\citation{abntex2cite}
\citation{abntex2cite-alf}
\citation{memoir}
\@writefile{toc}{\setlength  {\cftchapterindent }{\cftlastnumwidth } \setlength  {\cftchapternumwidth }{2em}}
\@writefile{toc}{\contentsline {chapter}{Introdu\IeC {\c c}\IeC {\~a}o}{17}{chapter*.9}}
\@writefile{brf}{\backcite{abntex2classe}{{17}{(document)}{Doc-Start}}}
\@writefile{brf}{\backcite{abntex2-wiki-como-customizar}{{17}{(document)}{Doc-Start}}}
\@writefile{brf}{\backcite{abntex2classe,abntex2cite,abntex2cite-alf}{{17}{(document)}{Doc-Start}}}
\@writefile{brf}{\backcite{abntex2classe,abntex2cite,abntex2cite-alf}{{17}{(document)}{Doc-Start}}}
\@writefile{brf}{\backcite{abntex2classe,abntex2cite,abntex2cite-alf}{{17}{(document)}{Doc-Start}}}
\@writefile{brf}{\backcite{memoir}{{17}{(document)}{Doc-Start}}}
\BKM@entry{id=10,dest={636861707465722E31},srcline={365}}{53697374656D61206465204E61766567615C3334375C3334336F204175746F6E6F6D61207061726120526F625C33363473204D5C33363376656973}
\@writefile{toc}{\setlength  {\cftchapterindent }{0em} \setlength  {\cftchapternumwidth }{\cftlastnumwidth }}
\@writefile{toc}{\contentsline {chapter}{\chapternumberline {1}Sistema de Navega\IeC {\c c}\IeC {\~a}o Autonoma para Rob\IeC {\^o}s M\IeC {\'o}veis}{19}{chapter.1}}
\BKM@entry{id=11,dest={636861707465722E32},srcline={368}}{4C6F63616C697A615C3334375C3334336F2065204D617065616D656E746F207669612053697374656D6120646520506F736963696F6E616D656E746F20496E646F6F7220636F6D2057692D4669}
\@writefile{toc}{\setlength  {\cftchapterindent }{0em} \setlength  {\cftchapternumwidth }{\cftlastnumwidth }}
\@writefile{toc}{\contentsline {chapter}{\chapternumberline {2}Localiza\IeC {\c c}\IeC {\~a}o e Mapeamento via Sistema de Posicionamento Indoor com Wi-Fi}{21}{chapter.2}}
\@writefile{lof}{\contentsline {figure}{\numberline {1}{\ignorespaces Esquema b\IeC {\'a}sico da localiza\IeC {\c c}\IeC {\~a}o em ambiente fechado utilizando Wi-Fi.}}{21}{figure.2.1}}
\newlabel{indoor-schema}{{\M@TitleReference {1}{Esquema b\IeC {\'a}sico da localiza\IeC {\c c}\IeC {\~a}o em ambiente fechado utilizando Wi-Fi.}}{21}{Esquema básico da localização em ambiente fechado utilizando Wi-Fi}{figure.2.1}{}}
\BKM@entry{id=12,dest={73656374696F6E2E322E31},srcline={393}}{41626F72646167656D2046696E6765725072696E74696E67}
\BKM@entry{id=13,dest={73756273656374696F6E2E322E312E31},srcline={397}}{547265696E616D656E746F205C284F66662D6C696E655C29}
\BKM@entry{id=14,dest={73656374696F6E2E322E32},srcline={401}}{416C676F7269746D6F73}
\BKM@entry{id=15,dest={73656374696F6E2E322E33},srcline={403}}{446973706F73697469766F73}
\BKM@entry{id=16,dest={73756273656374696F6E2E322E332E31},srcline={405}}{536D61727470686F6E65}
\BKM@entry{id=17,dest={73756273656374696F6E2E322E332E32},srcline={407}}{526F626F74696E6F}
\@writefile{toc}{\contentsline {section}{\numberline {2.1}Abordagem \emph  {FingerPrinting}}{22}{section.2.1}}
\@writefile{toc}{\contentsline {subsection}{\numberline {2.1.1}Treinamento (\emph  {Off-line})}{22}{subsection.2.1.1}}
\@writefile{toc}{\contentsline {section}{\numberline {2.2}Algoritmos}{22}{section.2.2}}
\@writefile{toc}{\contentsline {section}{\numberline {2.3}Dispositivos}{22}{section.2.3}}
\@writefile{toc}{\contentsline {subsection}{\numberline {2.3.1}Smartphone}{22}{subsection.2.3.1}}
\@writefile{toc}{\contentsline {subsection}{\numberline {2.3.2}Robotino}{22}{subsection.2.3.2}}
\BKM@entry{id=18,dest={636861707465722E33},srcline={409}}{506C616E656A616D656E746F206465205472616A65745C3336337269612070617261206F20526F625C333634204D5C33363376656C}
\BKM@entry{id=19,dest={73656374696F6E2E332E31},srcline={411}}{526F626F74696E6F}
\@writefile{toc}{\setlength  {\cftchapterindent }{0em} \setlength  {\cftchapternumwidth }{\cftlastnumwidth }}
\@writefile{toc}{\contentsline {chapter}{\chapternumberline {3}Planejamento de Trajet\IeC {\'o}ria para o Rob\IeC {\^o} M\IeC {\'o}vel}{23}{chapter.3}}
\@writefile{toc}{\contentsline {section}{\numberline {3.1}Robotino}{23}{section.3.1}}
\BKM@entry{id=20,dest={636861707465722E34},srcline={413}}{526573756C7461646F73}
\@writefile{toc}{\setlength  {\cftchapterindent }{0em} \setlength  {\cftchapternumwidth }{\cftlastnumwidth }}
\@writefile{toc}{\contentsline {chapter}{\chapternumberline {4}Resultados}{25}{chapter.4}}
\BKM@entry{id=21,dest={706172742E31},srcline={418}}{507265706172615C3334375C3334336F20646F2072656C61745C33363372696F}
\@writefile{toc}{\contentsline {part}{\partnumberline {I}Prepara\IeC {\c c}\IeC {\~a}o do relat\IeC {\'o}rio}{27}{part.1}}
\@input{abntex2-modelo-include-comandos.aux}
\BKM@entry{id=22,dest={706172742E32},srcline={430}}{526573756C7461646F73}
\@writefile{toc}{\contentsline {part}{\partnumberline {II}Resultados}{29}{part.2}}
\BKM@entry{id=23,dest={636861707465722E35},srcline={435}}{4C6F72656D20697073756D20646F6C6F722073697420616D6574}
\BKM@entry{id=24,dest={73656374696F6E2E352E31},srcline={438}}{416C697175616D20766573746962756C756D206672696E67696C6C61206C6F72656D}
\@writefile{toc}{\setlength  {\cftchapterindent }{0em} \setlength  {\cftchapternumwidth }{\cftlastnumwidth }}
\@writefile{toc}{\contentsline {chapter}{\chapternumberline {5}Lorem ipsum dolor sit amet}{31}{chapter.5}}
\@writefile{toc}{\contentsline {section}{\numberline {5.1}Aliquam vestibulum fringilla lorem}{31}{section.5.1}}
\@writefile{toc}{\vspace  {\cftbeforepartskip }}
\BKM@entry{id=25,dest={636861707465722A2E3133},srcline={456}}{436F6E636C75735C3334336F}
\bibdata{abntex2-options,abntex2-modelo-references}
\@writefile{toc}{\setlength  {\cftchapterindent }{\cftlastnumwidth } \setlength  {\cftchapternumwidth }{2em}}
\@writefile{toc}{\contentsline {chapter}{Conclus\IeC {\~a}o}{33}{chapter*.13}}
\@writefile{toc}{\vspace  {\cftbeforepartskip }}
\@switch{AP\^ENDICE} 
\@writefile{toc}{\setlength  {\cftpartindent }{\cftlastnumwidth } \setlength  {\cftpartnumwidth }{2em}}
\@writefile{toc}{\cftinsert {A}}
\BKM@entry{id=26,dest={73656374696F6E2A2E3135},srcline={489}}{41705C3335326E6469636573}
\@writefile{toc}{\contentsline {part}{Ap\^endices}{35}{section*.15}}
\BKM@entry{id=27,dest={617070656E6469782E41},srcline={491}}{51756973717565206C696265726F206A7573746F}
\@writefile{toc}{\setlength  {\cftchapterindent }{0em} \setlength  {\cftchapternumwidth }{\cftlastnumwidth }}
\@writefile{toc}{\setlength  {\cftchapterindent }{\cftlastnumwidth } \setlength  {\cftchapternumwidth }{2em}}
\@writefile{toc}{\cftinsert {A}}
\@writefile{toc}{\contentsline {appendix}{\chapternumberline {A}Quisque libero justo}{37}{appendix.A}}
\BKM@entry{id=28,dest={617070656E6469782E42},srcline={498}}{4E756C6C616D20656C656D656E74756D2075726E612076656C20696D7065726469657420736F64616C657320656C697420697073756D207068617265747261206C6967756C61206163207072657469756D20616E7465206A7573746F2061206E756C6C6120637572616269747572207472697374697175652061726375206575206D65747573}
\@writefile{toc}{\setlength  {\cftchapterindent }{0em} \setlength  {\cftchapternumwidth }{\cftlastnumwidth }}
\@writefile{toc}{\setlength  {\cftchapterindent }{\cftlastnumwidth } \setlength  {\cftchapternumwidth }{2em}}
\@writefile{toc}{\cftinsert {A}}
\@writefile{toc}{\contentsline {appendix}{\chapternumberline {B}Nullam elementum urna vel imperdiet sodales elit ipsum pharetra ligula ac pretium ante justo a nulla curabitur tristique arcu eu metus}{39}{appendix.B}}
\@writefile{toc}{\cftinsert {AAA}}
\@switch{ANEXO} 
\@writefile{toc}{\setlength  {\cftpartindent }{\cftlastnumwidth } \setlength  {\cftpartnumwidth }{2em}}
\@writefile{toc}{\cftinsert {A}}
\BKM@entry{id=29,dest={73656374696F6E2A2E3136},srcline={517}}{416E65786F73}
\@writefile{toc}{\contentsline {part}{Anexos}{41}{section*.16}}
\BKM@entry{id=30,dest={617070656E6469782E616E65786F636861706261636B2E31},srcline={519}}{4D6F72626920756C7472696365732072757472756D206C6F72656D2E}
\@writefile{toc}{\setlength  {\cftchapterindent }{0em} \setlength  {\cftchapternumwidth }{\cftlastnumwidth }}
\@writefile{toc}{\setlength  {\cftchapterindent }{\cftlastnumwidth } \setlength  {\cftchapternumwidth }{2em}}
\@writefile{toc}{\cftinsert {A}}
\@writefile{toc}{\contentsline {appendix}{\chapternumberline {A}Morbi ultrices rutrum lorem.}{43}{appendix.anexochapback.1}}
\BKM@entry{id=31,dest={617070656E6469782E616E65786F636861706261636B2E32},srcline={525}}{43726173206E6F6E2075726E612073656420666575676961742063756D20736F63696973206E61746F7175652070656E617469627573206574206D61676E6973206469732070617274757269656E74206D6F6E746573206E61736365747572207269646963756C7573206D7573}
\@writefile{toc}{\setlength  {\cftchapterindent }{0em} \setlength  {\cftchapternumwidth }{\cftlastnumwidth }}
\@writefile{toc}{\setlength  {\cftchapterindent }{\cftlastnumwidth } \setlength  {\cftchapternumwidth }{2em}}
\@writefile{toc}{\cftinsert {A}}
\@writefile{toc}{\contentsline {appendix}{\chapternumberline {B}Cras non urna sed feugiat cum sociis natoque penatibus et magnis dis parturient montes nascetur ridiculus mus}{45}{appendix.anexochapback.2}}
\BKM@entry{id=32,dest={617070656E6469782E616E65786F636861706261636B2E33},srcline={531}}{467573636520666163696C69736973206C6163696E696120647569}
\@writefile{toc}{\setlength  {\cftchapterindent }{0em} \setlength  {\cftchapternumwidth }{\cftlastnumwidth }}
\@writefile{toc}{\setlength  {\cftchapterindent }{\cftlastnumwidth } \setlength  {\cftchapternumwidth }{2em}}
\@writefile{toc}{\cftinsert {A}}
\@writefile{toc}{\contentsline {appendix}{\chapternumberline {C}Fusce facilisis lacinia dui}{47}{appendix.anexochapback.3}}
\@writefile{toc}{\vspace  {\cftbeforepartskip }}
\BKM@entry{id=33,dest={617070656E6469782A2E3138},srcline={550}}{4578656D706C6F20646520466F726D756C5C33343172696F206465204964656E7469666963615C3334375C3334336F}
\bibstyle{abntex2-alf}
\@writefile{toc}{\setlength  {\cftchapterindent }{\cftlastnumwidth } \setlength  {\cftchapternumwidth }{2em}}
\@writefile{toc}{\contentsline {chapter}{Exemplo de Formul\IeC {\'a}rio de Identifica\IeC {\c c}\IeC {\~a}o}{49}{appendix*.18}}
\newlabel{formulado-identificacao}{{\M@TitleReference {5.1}{Formul\IeC {\'a}rio de Identifica\IeC {\c c}\IeC {\~a}o}}{49}{Formulário de Identificação}{appendix*.18}{}}
\memsetcounter{lastsheet}{51}
\memsetcounter{lastpage}{49}
